presentation
…
A “quick” demo?

nsw_election_files <- list.files("nswla_data/", pattern = "\\.zip$", full.names = TRUE)

# Load the entire election with readr + dplyr
election <- lapply(
  nsw_election_files,
  \(x) read_delim(x, delim = "\t", show_col_types = FALSE) |>
         select(District, PollingPlaceName, BPNumber, CandidateName, PrefCounted)
) |>
  bind_rows() |>
  print(n = 4)

# A tibble: 12,203,709 × 5
  District PollingPlaceName BPNumber CandidateName PrefCounted
  <chr>    <chr>            <chr>    <chr>               <dbl>
1 Albury   Albury High      9996     CLANCY Justin           1
2 Albury   Albury High      9997     CLANCY Justin           1
3 Albury   Albury High      9998     CLANCY Justin           1
4 Albury   Albury High      9999     CLANCY Justin           1
# ℹ 12,203,705 more rows

A “quick” demo?

# Format the preferences with prefio
election <- election |>
    long_preferences(vote,
                     id_cols = c(District, PollingPlaceName, BPNumber),
                     item_col = CandidateName,
                     rank_col = PrefCounted) |>
    print(n = 5)

# A tibble: 4,701,930 × 4
  District PollingPlaceName BPNumber            vote
  <chr>    <chr>            <chr>         <prefrncs>
1 Albury   Absent           28372    [CLANCY Justin]
2 Albury   Absent           28373    [CLANCY Justin]
3 Albury   Absent           28374    [CLANCY Justin]
4 Albury   Absent           28375    [CLANCY Justin]
5 Albury   Absent           28376    [CLANCY Justin]
# ℹ 4,701,925 more rows
…
A “quick” demo?

A perfect match with the official results, and much faster than I would have previously thought possible.

# Format the preferences with prefio
election |>
    summarise(
        Winner = pref_irv(vote)$winner,
        .by = District
    )

# A tibble: 93 × 2
   District       Winner         
   <chr>          <chr>          
 1 Albury         CLANCY Justin  
 2 Auburn         VOLTZ Lynda    
 3 Badgerys Creek DAVIES Tanya   
 4 Ballina        SMITH Tamara   
 5 Balmain        SHETTY Kobi    
 6 Bankstown      DIB Jihad      
 7 Barwon         BUTLER Roy     
 8 Bathurst       TOOLE Paul     
 9 Bega           HOLLAND Michael
10 Blacktown      BALI Stephen   
# ℹ 83 more rows
…
